module gitlab.com/rdubwiley/ssh-blog

go 1.22.2

require (
	github.com/charmbracelet/bubbletea v0.25.0
	github.com/charmbracelet/log v0.4.0
	github.com/charmbracelet/ssh v0.0.0-20240401141849-854cddfa2917
	github.com/charmbracelet/wish v1.4.0
	github.com/mattn/go-sqlite3 v1.14.22
	github.com/spf13/cobra v1.8.0
	gitlab.com/rdubwiley/sshblogger v0.1.0
	gitlab.com/rdubwiley/texty v0.0.0-20240504230628-a10c74044594
)

require (
	github.com/alecthomas/chroma/v2 v2.8.0 // indirect
	github.com/anmitsu/go-shlex v0.0.0-20200514113438-38f4b401e2be // indirect
	github.com/atotto/clipboard v0.1.4 // indirect
	github.com/aymanbagabas/go-osc52/v2 v2.0.1 // indirect
	github.com/aymerick/douceur v0.2.0 // indirect
	github.com/charmbracelet/bubbles v0.18.0 // indirect
	github.com/charmbracelet/glamour v0.7.0 // indirect
	github.com/charmbracelet/keygen v0.5.0 // indirect
	github.com/charmbracelet/lipgloss v0.10.0 // indirect
	github.com/charmbracelet/x/errors v0.0.0-20240117030013-d31dba354651 // indirect
	github.com/charmbracelet/x/exp/term v0.0.0-20240328150354-ab9afc214dfd // indirect
	github.com/containerd/console v1.0.4-0.20230313162750-1ae8d489ac81 // indirect
	github.com/creack/pty v1.1.21 // indirect
	github.com/dlclark/regexp2 v1.4.0 // indirect
	github.com/go-logfmt/logfmt v0.6.0 // indirect
	github.com/gorilla/css v1.0.0 // indirect
	github.com/inconshreveable/mousetrap v1.1.0 // indirect
	github.com/lucasb-eyer/go-colorful v1.2.0 // indirect
	github.com/mattn/go-isatty v0.0.20 // indirect
	github.com/mattn/go-localereader v0.0.1 // indirect
	github.com/mattn/go-runewidth v0.0.15 // indirect
	github.com/microcosm-cc/bluemonday v1.0.26 // indirect
	github.com/muesli/ansi v0.0.0-20230316100256-276c6243b2f6 // indirect
	github.com/muesli/cancelreader v0.2.2 // indirect
	github.com/muesli/reflow v0.3.0 // indirect
	github.com/muesli/termenv v0.15.2 // indirect
	github.com/olekukonko/tablewriter v0.0.5 // indirect
	github.com/rivo/uniseg v0.4.7 // indirect
	github.com/sahilm/fuzzy v0.1.1-0.20230530133925-c48e322e2a8f // indirect
	github.com/spf13/pflag v1.0.5 // indirect
	github.com/yuin/goldmark v1.5.4 // indirect
	github.com/yuin/goldmark-emoji v1.0.2 // indirect
	golang.org/x/crypto v0.21.0 // indirect
	golang.org/x/exp v0.0.0-20231006140011-7918f672742d // indirect
	golang.org/x/net v0.22.0 // indirect
	golang.org/x/sync v0.6.0 // indirect
	golang.org/x/sys v0.18.0 // indirect
	golang.org/x/term v0.18.0 // indirect
	golang.org/x/text v0.14.0 // indirect
)
